Presentation
…
            9 5 2021

Introduction

Introduction to study by xx et. al - Original data - example of raw data collected from Cleveland

data_raw <- read_csv("../data/_raw/processed.cleveland.data")

## Warning: Duplicated column names deduplicated: '1.0' => '1.0_1' [3], '1.0' =>
## '1.0_2' [6], '0.0' => '0.0_1' [12]

print(data_raw, width = 80, n = 4, n_extra = 1)

## # A tibble: 302 x 14
##   `63.0` `1.0` `1.0_1` `145.0` `233.0` `1.0_2` `2.0` `150.0` `0.0` `2.3` `3.0`
##    <dbl> <dbl>   <dbl>   <dbl>   <dbl>   <dbl> <dbl>   <dbl> <dbl> <dbl> <dbl>
## 1     67     1       4     160     286       0     2     108     1   1.5     2
## 2     67     1       4     120     229       0     2     129     1   2.6     2
## 3     37     1       3     130     250       0     0     187     0   3.5     3
## 4     41     0       2     130     204       0     2     172     0   1.4     1
## #  with 298 more rows, and 3 more variable: 0.0_1 <chr>, 
…
